{
    "sites": [
       {
            "available_alternatives": [
                {
                    "created_at": "2022-03-09 12:47:07.719556",
                    "proto": "tor",
                    "type": "eotk",
                    "updated_at": "2022-03-09 12:47:07.719557",
                    "url": "https://www.bbcnewsd73hkzno2ini43t4gblxvycyac5aw4gnv7t2rccijh7745uqd.onion"
                }
            ],
            "main_domain": "bbc.co.uk"
        },
        {
            "available_alternatives": [
                {
                    "created_at": "2022-03-09 12:47:07.858737",
                    "proto": "https",
                    "type": "mirror",
                    "updated_at": "2022-03-09 12:47:07.858738",
                    "url": "https://d2d0cl8vuawvuv.cloudfront.net"
                },
                {
                    "created_at": "2022-03-09 21:32:30.861795",
                    "proto": "https",
                    "type": "mirror",
                    "updated_at": "2022-03-09 21:32:58.643504",
                    "url": "https://dxd59zfzkaqol.cloudfront.net"
                },
                {
                    "created_at": "2022-03-09 21:35:21.639404",
                    "proto": "https",
                    "type": "mirror",
                    "updated_at": "2022-03-09 21:35:31.996308",
                    "url": "https://d12b5t7zh1bhpp.cloudfront.net"
                }
            ],
            "main_domain": "guardianproject.info"
        }
    ],
    "version": "2.0"
}